{
  "invidious": {
    "normal": [
      "https://yewtu.be",
      "https://vid.puffyan.us",
      "https://invidious.snopyta.org",
      "https://inv.riverside.rocks",
      "https://y.com.sb",
      "https://yt.artemislena.eu",
      "https://invidious.flokinet.to",
      "https://invidious.sethforprivacy.com",
      "https://invidious.tiekoetter.com",
      "https://inv.bp.projectsegfau.lt",
      "https://invidious.projectsegfau.lt",
      "https://inv.vern.cc",
      "https://invidious.nerdvpn.de",
      "https://invidious.slipfox.xyz",
      "https://youtube.076.ne.jp",
      "https://invidious.weblibre.org",
      "https://invidious.kavin.rocks",
      "https://invidious.namazso.eu",
      "https://invidious.esmailelbob.xyz",
      "https://invidious.osi.kr",
      "https://inv.privacy.com.de"
    ],
    "tor": [
      "http://c7hqkpkpemu6e7emz5b4vyz7idjgdvgaaa3dyimmeojqbgpea3xqjoid.onion",
      "http://w6ijuptxiku4xpnnaetxvnkc5vqcdu7mgns2u77qefoixi63vbvnpnqd.onion",
      "http://kbjggqkzv65ivcqj6bumvp337z6264huv5kpkwuv6gu5yjiskvan7fad.onion",
      "http://grwp24hodrefzvjjuccrkw3mjq4tzhaaq32amf33dzpmuxe7ilepcmad.onion",
      "http://osbivz6guyeahrwp2lnwyjk2xos342h4ocsxyqrlaopqjuhwn2djiiyd.onion",
      "http://u2cvlit75owumwpy4dj2hsmvkq7nvrclkpht7xgyye2pyoxhpmclkrad.onion",
      "http://euxxcnhsynwmfidvhjf6uzptsmh4dipkmgdmcmxxuo7tunp3ad2jrwyd.onion",
      "http://invidious.lqs5fjmajyp7rvp4qvyubwofzi6d4imua7vs237rkc4m5qogitqwrgyd.onion",
      "http://inv.vernccvbvyi5qhfzyqengccj7lkove6bjot2xhh5kajhwvidqafczrad.onion",
      "http://am74vkcrjp2d5v36lcdqgsj2m6x36tbrkhsruoegwfcizzabnfgf5zyd.onion"
    ],
    "i2p": [],
    "loki": []
  },
  "piped": {
    "normal": [
      "https://piped.kavin.rocks",
      "https://piped.tokhmi.xyz",
      "https://piped.moomoo.me",
      "https://piped.mha.fi",
      "https://us-piped.shimul.me",
      "https://pipedus.palash.dev",
      "https://watch.whatever.social",
      "https://yt.jae.fi",
      "https://piped.mint.lgbt",
      "https://il.ax",
      "https://piped.esmailelbob.xyz",
      "https://piped.projectsegfau.lt"
    ],
    "tor": [],
    "i2p": [],
    "loki": []
  },
  "pipedMaterial": {
    "normal": [
      "https://piped-material.১.net",
      "https://piped-material.ftp.sh",
      "https://piped-staging.ftp.sh",
      "https://ui.piped.১.net"
    ],
    "tor": [],
    "i2p": [],
    "loki": []
  },
  "cloudtube": {
    "normal": [
      "https://tube.cadence.moe",
      "https://yt.beparanoid.de"
    ],
    "tor": [
      "http://yt.prnoid54e44a4bduq5due64jkk7wcnkxcp5kv3juncm7veptjcqudgyd.onion"
    ],
    "i2p": [],
    "loki": []
  },
  "proxiTok": {
    "normal": [
      "https://proxitok.herokuapp.com",
      "https://proxitok.pussthecat.org",
      "https://tok.habedieeh.re",
      "https://proxitok.esmailelbob.xyz",
      "https://cringe.whatever.social",
      "https://proxitok.dhusch.de",
      "https://proxitok.privacydev.net"
    ],
    "tor": [],
    "i2p": [],
    "loki": []
  },
  "send": {
    "normal": [
      "https://send.vis.ee",
      "https://send.zcyph.cc",
      "https://send.turingpoint.de",
      "https://send.ephemeral.land",
      "https://send.mni.li",
      "https://send.monks.tools",
      "https://send.boblorange.net",
      "https://send.aurorabilisim.com",
      "https://nhanh.cloud",
      "https://send.datahoarder.dev",
      "https://fileupload.ggc-project.de",
      "https://drop.chapril.org",
      "https://send.jeugdhulp.be",
      "https://files.psu.ru",
      "https://send.portailpro.net",
      "https://bytefile.de",
      "https://transfer.acted.org"
    ],
    "tor": [],
    "i2p": [],
    "loki": []
  },
  "nitter": {
    "normal": [
      "https://nitter.net",
      "https://nitter.42l.fr",
      "https://nitter.pussthecat.org",
      "https://nitter:nitter@nitter.nixnet.services",
      "https://nitter.fdn.fr",
      "https://nitter.1d4.us",
      "https://nitter.kavin.rocks",
      "https://nitter.unixfox.eu",
      "https://nitter.domain.glass",
      "https://nitter.namazso.eu",
      "https://birdsite.xanny.family",
      "https://nitter.hu",
      "https://nitter.moomoo.me",
      "https://bird.trom.tf",
      "https://nitter.it",
      "https://twitter.censors.us",
      "https://nitter.grimneko.de",
      "https://nitter.ca",
      "https://twitter.076.ne.jp",
      "https://nitter.fly.dev",
      "https://notabird.site",
      "https://nitter.weiler.rocks",
      "https://nitter.sethforprivacy.com",
      "https://nttr.stream",
      "https://nitter.cutelab.space",
      "https://nitter.nl",
      "https://nitter.mint.lgbt",
      "https://nitter.bus-hit.me",
      "https://fuckthesacklers.network",
      "https://nitter.esmailelbob.xyz",
      "https://tw.artemislena.eu",
      "https://de.nttr.stream",
      "https://nitter.winscloud.net",
      "https://nitter.tiekoetter.com",
      "https://nitter.spaceint.fr",
      "https://twtr.bch.bar",
      "https://nitter.privacy.com.de",
      "https://nitter.notraxx.ch",
      "https://nitter.poast.org",
      "https://nitter.bird.froth.zone",
      "https://nitter.dcs0.hu",
      "https://twitter.dr460nf1r3.org",
      "https://nitter.garudalinux.org",
      "https://twitter.beparanoid.de",
      "https://n.ramle.be",
      "https://nitter.cz",
      "https://nitter.privacydev.net",
      "https://tweet.lambda.dance",
      "https://nitter.ebnar.xyz",
      "https://nitter.kylrth.com",
      "https://nitter.foss.wtf",
      "https://nitter.priv.pw",
      "https://nitter.wef.lol",
      "https://nitter.tokhmi.xyz",
      "https://nitter.catalyst.sx",
      "https://unofficialbird.com",
      "https://nitter.projectsegfau.lt",
      "https://singapore.unofficialbird.com",
      "https://twt.funami.tech",
      "https://nitter.fprivacy.com",
      "https://canada.unofficialbird.com",
      "https://india.unofficialbird.com",
      "https://nederland.unofficialbird.com",
      "https://uk.unofficialbird.com",
      "https://n.l5.ca",
      "https://nitter.slipfox.xyz",
      "https://nitter.soopy.moe",
      "https://nitter.qwik.space"
    ],
    "tor": [
      "http://nitter7bryz3jv7e3uekphigvmoyoem4al3fynerxkj22dmoxoq553qd.onion",
      "http://npf37k3mtzwxreiw52ccs5ay4e6qt2fkcs2ndieurdyn2cuzzsfyfvid.onion",
      "http://26oq3gioiwcmfojub37nz5gzbkdiqp7fue5kvye7d4txv4ny6fb4wwid.onion",
      "http://vfaomgh4jxphpbdfizkm5gbtjahmei234giqj4facbwhrfjtcldauqad.onion",
      "http://iwgu3cv7ywf3gssed5iqtavmrlszgsxazkmwwnt4h2kdait75thdyrqd.onion",
      "http://erpnncl5nhyji3c32dcfmztujtl3xaddqb457jsbkulq24zqq7ifdgad.onion",
      "http://ckzuw5misyahmg7j5t5xwwuj3bwy62jfolxyux4brfflramzsvvd3syd.onion",
      "http://jebqj47jgxleaiosfcxfibx2xdahjettuydlxbg64azd4khsxv6kawid.onion",
      "http://nttr2iupbb6fazdpr2rgbooon2tzbbsvvkagkgkwohhodjzj43stxhad.onion",
      "http://nitraeju2mipeziu2wtcrqsxg7h62v5y4eqgwi75uprynkj74gevvuqd.onion",
      "http://nitter.lqs5fjmajyp7rvp4qvyubwofzi6d4imua7vs237rkc4m5qogitqwrgyd.onion",
      "http://ibsboeui2im5o7dxnik3s5yghufumgy5abevtij5nbizequfpu4qi4ad.onion",
      "http://ec5nvbycpfa5k6ro77blxgkyrzbkv7uy6r5cngcbkadtjj2733nm3uyd.onion",
      "http://twitter.ap3jtgssd7qn4vfoa62gi2ijddoblslbeuw5dan3xt7myvqpura5i4qd.onion",
      "http://twitter.prnoid54e44a4bduq5due64jkk7wcnkxcp5kv3juncm7veptjcqudgyd.onion",
      "http://nitter.micohauwkjbyw5meacrb4ipicwvwg4xtzl7y7viv53kig2mdcsvwkyyd.onion",
      "http://fbdi323aj3t6hdx4jtkuwxrnafzskquciowu2yu3jizfssaq35aow6ad.onion",
      "http://nitterqdyumlovt7tjqpdjrluitgmtpa53qq3idlpgoe4kxo7gs3xvad.onion",
      "http://nitter.privpw3tndpkw6pnp3g727zfgfdzbu3k6a7chv226s3xymv2p4eiuqyd.onion",
      "http://aaaaaxx74hbzeibageieowryhsqvimbdiitfkfe47tvgawkwkjh3coqd.onion",
      "http://wiio4sgs4247brk7hj6qck2jxnvldwfdbguigc5ivpxrsegnliyfvuqd.onion",
      "http://qwikxx2erhx6qrymued6ox2qkf2yeogjwypqvzoif4fqkljixasr6oid.onion",
      "http://4g47cxugkohbweao2x66nnxxfoe3k7gdfzxej537nhdbwr522sbjxeqd.onion"
    ],
    "i2p": [
      "http://axd6uavsstsrvstva4mzlzh4ct76rc6zdug3nxdgeitrzczhzf4q.b32.i2p",
      "http://u6ikd6zndl3c4dsdq4mmujpntgeevdk5qzkfb57r4tnfeccrn2qa.b32.i2p",
      "http://gseczlzmiv23p5vhsktyd7whquq2uy3c5fgkmdohh453qp3daoua.b32.i2p",
      "http://tm4rwkeysv3zz3q5yacyr4rlmca2c4etkdobfvuqzt6vsfsu4weq.b32.i2p"
    ],
    "loki": [
      "http://nitter.priv.loki"
    ]
  },
  "bibliogram": {
    "normal": [
      "https://bibliogram.art",
      "https://bibliogram.snopyta.org",
      "https://bibliogram.pussthecat.org",
      "https://bibliogram.1d4.us",
      "https://bibliogram.froth.zone",
      "https://insta.trom.tf",
      "https://insta.tromdienste.de",
      "https://ig.tokhmi.xyz",
      "https://ig.beparanoid.de",
      "https://bibliogram.priv.pw",
      "https://ig.funami.tech",
      "https://bib.actionsack.com"
    ],
    "tor": [],
    "i2p": [],
    "loki": []
  },
  "libreddit": {
    "normal": [
      "https://libredd.it",
      "https://libreddit.spike.codes",
      "https://libreddit.dothq.co",
      "https://libreddit.kavin.rocks",
      "https://reddit.invak.id",
      "https://reddit.phii.me",
      "https://lr.riverside.rocks",
      "https://libreddit.strongthany.cc",
      "https://libreddit.database.red",
      "https://libreddit.privacy.com.de",
      "https://libreddit.domain.glass",
      "https://libreddit.sugoma.tk",
      "https://libreddit.jamiethalacker.dev",
      "https://reddit.artemislena.eu",
      "https://r.nf",
      "https://libreddit.some-things.org",
      "https://reddit.stuehieyr.com",
      "https://lr.mint.lgbt",
      "https://libreddit.igna.rocks",
      "https://libreddit.autarkic.org",
      "https://libreddit.flux.industries",
      "https://libreddit.drivet.xyz",
      "https://lr.oversold.host",
      "https://libreddit.de",
      "https://libreddit.pussthecat.org",
      "https://libreddit.mutahar.rocks",
      "https://libreddit.northboot.xyz",
      "https://leddit.xyz",
      "https://de.leddit.xyz",
      "https://lr.cowfee.moe",
      "https://libreddit.hu",
      "https://libreddit.totaldarkness.net",
      "https://libreddit.esmailelbob.xyz",
      "https://lr.vern.cc",
      "https://libreddit.nl",
      "https://lr.stilic.ml",
      "https://reddi.tk",
      "https://libreddit.bus-hit.me",
      "https://libreddit.datatunnel.xyz",
      "https://libreddit.crewz.me",
      "https://r.walkx.org",
      "https://libreddit.kylrth.com",
      "https://libreddit.yonalee.eu",
      "https://libreddit.winscloud.net",
      "https://libreddit.tiekoetter.com",
      "https://reddit.rtrace.io",
      "https://libreddit.lunar.icu",
      "https://libreddit.privacydev.net",
      "https://libreddit.notyourcomputer.net",
      "https://r.ahwx.org",
      "https://bob.fr.to",
      "https://reddit.beparanoid.de",
      "https://libreddit.dcs0.hu",
      "https://reddit.dr460nf1r3.org",
      "https://rd.jae.su",
      "https://libreddit.mha.fi",
      "https://libreddit.foss.wtf",
      "https://libreddit.encrypted-data.xyz",
      "https://libreddit.eu.org",
      "https://l.opnxng.com"
    ],
    "tor": [
      "http://spjmllawtheisznfs7uryhxumin26ssv2draj7oope3ok3wuhy43eoyd.onion",
      "http://fwhhsbrbltmrct5hshrnqlqygqvcgmnek3cnka55zj4y7nuus5muwyyd.onion",
      "http://kphht2jcflojtqte4b4kyx7p2ahagv4debjj32nre67dxz7y57seqwyd.onion",
      "http://inytumdgnri7xsqtvpntjevaelxtgbjqkuqhtf6txxhwbll2fwqtakqd.onion",
      "http://liredejj74h5xjqr2dylnl5howb2bpikfowqoveub55ru27x43357iid.onion",
      "http://kzhfp3nvb4qp575vy23ccbrgfocezjtl5dx66uthgrhu7nscu6rcwjyd.onion",
      "http://ecue64ybzvn6vjzl37kcsnwt4ycmbsyf74nbttyg7rkc3t3qwnj7mcyd.onion",
      "http://ledditqo2mxfvlgobxnlhrkq4dh34jss6evfkdkb2thlvy6dn4f4gpyd.onion",
      "http://libredoxhxwnmsb6dvzzd35hmgzmawsq5i764es7witwhddvpc2razid.onion",
      "http://libreddit.2syis2nnyytz6jnusnjurva4swlaizlnleiks5mjp46phuwjbdjqwgqd.onion",
      "http://ol5begilptoou34emq2sshf3may3hlblvipdjtybbovpb7c7zodxmtqd.onion",
      "http://lbrdtjaj7567ptdd4rv74lv27qhxfkraabnyphgcvptl64ijx2tijwid.onion",
      "http://libreddit.lqs5fjmajyp7rvp4qvyubwofzi6d4imua7vs237rkc4m5qogitqwrgyd.onion",
      "http://reddit.prnoid54e44a4bduq5due64jkk7wcnkxcp5kv3juncm7veptjcqudgyd.onion",
      "http://inz6tbezfwzexva6dize4cqraj2tjdhygxabmcgysccesvw2pybzhbyd.onion",
      "http://libreddit.micohauwkjbyw5meacrb4ipicwvwg4xtzl7y7viv53kig2mdcsvwkyyd.onion",
      "http://lr.vernccvbvyi5qhfzyqengccj7lkove6bjot2xhh5kajhwvidqafczrad.onion"
    ],
    "i2p": [],
    "loki": []
  },
  "teddit": {
    "normal": [
      "https://teddit.net",
      "https://teddit.ggc-project.de",
      "https://teddit.zaggy.nl",
      "https://teddit.namazso.eu",
      "https://teddit.nautolan.racing",
      "https://teddit.tinfoil-hat.net",
      "https://teddit.domain.glass",
      "https://snoo.ioens.is",
      "https://teddit.httpjames.space",
      "https://incogsnoo.com",
      "https://teddit.pussthecat.org",
      "https://reddit.lol",
      "https://teddit.sethforprivacy.com",
      "https://teddit.totaldarkness.net",
      "https://teddit.adminforge.de",
      "https://teddit.bus-hit.me",
      "https://teddit.froth.zone",
      "https://rdt.trom.tf",
      "https://teddit.encrypted-data.xyz",
      "https://i.opnxng.com",
      "https://teddit.tokhmi.xyz",
      "https://teddit.garudalinux.org",
      "https://tedd.it",
      "https://wiki.privacytools.io",
      "https://td.vern.cc"
    ],
    "tor": [
      "http://snoo.ioensistjs7wd746zluwixvojbbkxhr37lepdvwtdfeav673o64iflqd.onion",
      "http://ibarajztopxnuhabfu7fg6gbudynxofbnmvis3ltj6lfx47b6fhrd5qd.onion",
      "http://tedditfyn6idalzso5wam5qd3kdtxoljjhbrbbx34q2xkcisvshuytad.onion",
      "http://dawtyi5e2cfyfmoht4izmczi42aa2zwh6wi34zwvc6rzf2acpxhrcrad.onion",
      "http://qtpvyiaqhmwccxwzsqubd23xhmmrt75tdyw35kp43w4hvamsgl3x27ad.onion",
      "http://td.vernccvbvyi5qhfzyqengccj7lkove6bjot2xhh5kajhwvidqafczrad.onion"
    ],
    "i2p": [],
    "loki": []
  },
  "wikiless": {
    "normal": [
      "https://wikiless.org",
      "https://wikiless.sethforprivacy.com",
      "https://wiki.604kph.xyz",
      "https://wikiless.lunar.icu",
      "https://wiki.froth.zone",
      "https://wikiless.northboot.xyz",
      "https://wikiless.tiekoetter.com",
      "https://wikiless.esmailelbob.xyz",
      "https://wiki.slipfox.xyz",
      "https://wikiless.funami.tech",
      "https://wl.vern.cc",
      "https://wiki.privacytools.io"
    ],
    "tor": [
      "http://dj2tbh2nqfxyfmvq33cjmhuw7nb6am7thzd3zsjvizeqf374fixbrxyd.onion",
      "http://ybgg2evrcdz37y2qes23ff3wjqjdn33tthgoagi76vhxytu4mpxiz5qd.onion",
      "http://wikiless.lqs5fjmajyp7rvp4qvyubwofzi6d4imua7vs237rkc4m5qogitqwrgyd.onion",
      "http://c2pesewpalbi6lbfc5hf53q4g3ovnxe4s7tfa6k2aqkf7jd7a7dlz5ad.onion",
      "http://wl.vernccvbvyi5qhfzyqengccj7lkove6bjot2xhh5kajhwvidqafczrad.onion"
    ],
    "i2p": [
      "http://wikiless.i2p",
      "http://hflqp2ejxygpj6cdwo3ogfieqmxw3b56w7dblt7bor2ltwk6kcfa.b32.i2p",
      "http://x33lx4h6d7h6xs4eiqwhvaxn3ea5gn2ifmu3jobnvuvn4k4aej7a.b32.i2p",
      "http://vernesciy2defjsputrjrv6pa5ll6qzrckfffi5lgkumstdojyga.b32.i2p"
    ],
    "loki": []
  },
  "scribe": {
    "normal": [
      "https://scribe.rip",
      "https://scribe.nixnet.services",
      "https://scribe.citizen4.eu",
      "https://scribe.bus-hit.me",
      "https://scribe.froth.zone",
      "https://scribe.esmailelbob.xyz",
      "https://scribe.privacydev.net"
    ],
    "tor": [],
    "i2p": [],
    "loki": []
  },
  "quetre": {
    "normal": [
      "https://quetre.herokuapp.com",
      "https://quora.vern.cc",
      "https://quetre.pussthecat.org",
      "https://wuetre.herokuapp.com",
      "https://quetreus.herokuapp.com",
      "https://quetre.tokhmi.xyz",
      "https://quetre.projectsegfau.lt",
      "https://quetre.esmailelbob.xyz"
    ],
    "tor": [
      "http://quetre.lqs5fjmajyp7rvp4qvyubwofzi6d4imua7vs237rkc4m5qogitqwrgyd.onion"
    ],
    "i2p": [],
    "loki": []
  },
  "libremdb": {
    "normal": [
      "https://libremdb.herokuapp.com",
      "https://libremdb.pussthecat.org",
      "https://libremdbeu.herokuapp.com",
      "https://lmdb.tokhmi.xyz",
      "https://libremdb.esmailelbob.xyz"
    ],
    "tor": [
      "http://libremdb.lqs5fjmajyp7rvp4qvyubwofzi6d4imua7vs237rkc4m5qogitqwrgyd.onion"
    ],
    "i2p": [],
    "loki": []
  },
  "simplyTranslate": {
    "normal": [
      "https://simplytranslate.org",
      "https://st.tokhmi.xyz",
      "https://translate.josias.dev",
      "https://translate.namazso.eu",
      "https://translate.riverside.rocks",
      "https://st.manerakai.com",
      "https://translate.bus-hit.me",
      "https://simplytranslate.pussthecat.org",
      "https://translate.northboot.xyz",
      "https://translate.tiekoetter.com",
      "https://simplytranslate.esmailelbob.xyz",
      "https://tl.vern.cc",
      "https://translate.slipfox.xyz",
      "https://st.privacydev.net",
      "https://translate.beparanoid.de",
      "https://translate.priv.pw"
    ],
    "tor": [
      "http://fyng2tsmzmvxmojzbbwmfnsn2lrcyftf4cw6rk5j2v2huliazud3fjid.onion",
      "http://xxtbwyb5z5bdvy2f6l2yquu5qilgkjeewno4qfknvb3lkg3nmoklitid.onion",
      "http://translate.prnoid54e44a4bduq5due64jkk7wcnkxcp5kv3juncm7veptjcqudgyd.onion",
      "http://simplytranslate.lqs5fjmajyp7rvp4qvyubwofzi6d4imua7vs237rkc4m5qogitqwrgyd.onion"
    ],
    "i2p": [
      "http://kmnkkp4v4ublygtnyq46oacy3qw75nrxxniriuaersumw7bfsm2a.b32.i2p"
    ],
    "loki": [
      "http://translate.priv.loki"
    ]
  },
  "lingva": {
    "normal": [
      "https://lingva.ml",
      "https://translate.igna.ooo",
      "https://lingva.pussthecat.org",
      "https://translate.plausibility.cloud",
      "https://lingva.lunar.icu",
      "https://lingva.opnxng.com",
      "https://translate.projectsegfau.lt",
      "https://lingva.garudalinux.org",
      "https://translate.dr460nf1r3.org"
    ],
    "tor": [],
    "i2p": [],
    "loki": []
  },
  "searx": {
    "normal": [
      "https://dynabyte.ca",
      "https://jsearch.pw",
      "https://search.ethibox.fr",
      "https://search.snopyta.org",
      "https://search.stinpriza.org",
      "https://search.trom.tf",
      "https://searx.bissisoft.com",
      "https://searx.divided-by-zero.eu",
      "https://searx.dresden.network",
      "https://searx.fossencdi.org",
      "https://searx.gnu.style",
      "https://searx.mastodontech.de",
      "https://searx.mxchange.org",
      "https://searx.nakhan.net",
      "https://searx.netzspielplatz.de",
      "https://searx.nixnet.services",
      "https://searx.org",
      "https://searx.ru",
      "https://searx.run",
      "https://searx.semipvt.com",
      "https://searx.sp-codes.de",
      "https://searx.stuehieyr.com",
      "https://searx.tuxcloud.net",
      "https://searx.tyil.nl",
      "https://searx.vanwa.tech",
      "https://searx.webheberg.info",
      "https://searx.xyz",
      "https://searx.zapashcanon.fr",
      "https://searxng.ir",
      "https://spot.ecloud.global",
      "https://suche.dasnetzundich.de",
      "https://suche.tromdienste.de",
      "https://suche.uferwerk.org",
      "https://swag.pw",
      "https://sx.catgirl.cloud",
      "https://timdor.noip.me/searx",
      "https://www.higgssearch.com",
      "https://searx.roflcopter.fr"
    ],
    "tor": [
      "http://3afisqjw2rxm6z7mmstyt5rx75qfqrgxnkzftknbp2vhipr2nrmrjdyd.onion",
      "http://yra4tke2pwcnatxjkufpw6kvebu3h3ti2jca2lcdpgx3mpwol326lzid.onion",
      "http://z5vawdol25vrmorm4yydmohsd4u6rdoj2sylvoi3e3nqvxkvpqul7bqd.onion",
      "http://zbuc3bbzbfdqqo2x46repx2ddajbha6fpsjeeptjhhhhzji3zopxdqyd.onion",
      "http://f4qfqajszpx5b7itzxt6mb7kj4ktpgbdq7lq6xaiqyqx6a7de3epptad.onion"
    ],
    "i2p": [
      "http://ransack.i2p",
      "http://mqamk4cfykdvhw5kjez2gnvse56gmnqxn7vkvvbuor4k4j2lbbnq.b32.i2p"
    ],
    "loki": []
  },
  "searxng": {
    "normal": [
      "https://darmarit.org/searx",
      "https://de.xcxc.ml",
      "https://etsi.me",
      "https://jackgoss.xyz",
      "https://northboot.xyz",
      "https://opnxng.com",
      "https://paulgo.io",
      "https://priv.au",
      "https://privatus.live",
      "https://s.frlt.one",
      "https://s.zhaocloud.net",
      "https://saber.tk",
      "https://search.0relay.com",
      "https://search.affusio.com",
      "https://search.bus-hit.me",
      "https://search.chemicals-in-the-water.eu",
      "https://search.disroot.org",
      "https://search.gcomm.ch",
      "https://search.kiwitalk.de",
      "https://search.mdosch.de",
      "https://search.neet.works",
      "https://search.ononoki.org",
      "https://search.privacyguides.net",
      "https://search.projectsegfau.lt",
      "https://search.rabbit-company.com",
      "https://search.sapti.me",
      "https://search.teamriverbubbles.com",
      "https://search.unlocked.link",
      "https://search.uspersec.com",
      "https://search.vidhukant.xyz",
      "https://search.zzls.xyz",
      "https://searx.baczek.me",
      "https://searx.be",
      "https://searx.becomesovran.com",
      "https://searx.chocoflan.net",
      "https://searx.ebnar.xyz",
      "https://searx.ericaftereric.top",
      "https://searx.esmailelbob.xyz",
      "https://searx.fi",
      "https://searx.fmac.xyz",
      "https://searx.gnous.eu",
      "https://searx.kujonello.cf",
      "https://searx.mha.fi",
      "https://searx.mistli.net",
      "https://searx.namejeff.xyz",
      "https://searx.orion-hub.fr",
      "https://searx.priv.pw",
      "https://searx.prvcy.eu",
      "https://searx.rimkus.it",
      "https://searx.sethforprivacy.com",
      "https://searx.sev.monster",
      "https://searx.slipfox.xyz/searx",
      "https://searx.tiekoetter.com",
      "https://searx.vimproved.me",
      "https://searx.zcyph.cc",
      "https://searxng.au/searx",
      "https://searxng.tordenskjold.de",
      "https://searxng.zackptg5.com",
      "https://searxvm.com",
      "https://serx.ml",
      "https://sh0.it",
      "https://soek.allesbeste.com",
      "https://srx.cosmohub.io",
      "https://www.gruble.de",
      "https://www.webrats.xyz",
      "https://xcxc.ml",
      "https://xo.wtf"
    ],
    "tor": [
      "http://w5rl6wsd7mzj4bdkbuqvzidet5osdsm5jhg2f7nvfidakfq5exda5wid.onion",
      "http://4n53nafyi77iplnbrpmxnp3x4exbswwxigujaxy3b37fvr7bvlopxeyd.onion",
      "http://b6sxmon57qza6dt36li7huabie5ntrvjr4q5rc2vvbn4hqvzd4phrvyd.onion",
      "http://searxngg6zleq6ceboe5ltkyo4hyrb3aaycrgzmrljv3jjlb5vcytead.onion",
      "http://gbat2pbpg7ys3fi3pbp64667tt5x66mg45xok35bxdw7v55brm7a27yd.onion",
      "http://searxdr3pqz4nydgnqocsia2xbywptxbkympa2emn7zlgggrir4bkfad.onion",
      "http://searx.lqs5fjmajyp7rvp4qvyubwofzi6d4imua7vs237rkc4m5qogitqwrgyd.onion",
      "http://searx.micohauwkjbyw5meacrb4ipicwvwg4xtzl7y7viv53kig2mdcsvwkyyd.onion",
      "http://searx.privpw3tndpkw6pnp3g727zfgfdzbu3k6a7chv226s3xymv2p4eiuqyd.onion",
      "http://rq2w52kyrif3xpfihkgjnhqm3a5aqhoikpv72z3drpjglfzc2wr5z4yd.onion",
      "http://fub6vgedgeadlu3ctskrpkcqjruh76tckwtj5swfhyblgml2tzgzckqd.onion/searx",
      "http://searx3aolosaf3urwnhpynlhuokqsgz47si4pzz5hvb7uuzyjncl2tid.onion",
      "http://4tz2vlnwk2apf2rpinkqv6uxvfgo5xjx6vl5vp7lxgaiooumetjpstqd.onion"
    ],
    "i2p": [],
    "loki": []
  },
  "whoogle": {
    "normal": [
      "https://gowogle.voring.me",
      "https://s.tokhmi.xyz",
      "https://search.albony.xyz",
      "https://search.garudalinux.org",
      "https://search.dr460nf1r3.org",
      "https://search.sethforprivacy.com",
      "https://whoogle.fossho.st",
      "https://www.whooglesearch.ml",
      "https://whoogle.dcs0.hu",
      "https://whoogle.esmailelbob.xyz",
      "https://whoogle.lunar.icu",
      "https://whoogle.privacydev.net",
      "https://search.wef.lol"
    ],
    "tor": [],
    "i2p": [],
    "loki": []
  },
  "librex": {
    "normal": [
      "https://librex.beparanoid.de",
      "https://librex.extravi.dev",
      "https://search.davidovski.xyz",
      "https://search.funami.tech",
      "https://librex.catalyst.sx",
      "https://search.madreyk.xyz"
    ],
    "tor": [
      "http://librex.2356uhnbpv5nk3bni5bv6jg2cd6lgj664kwx3lhyelstpttpyv4kk2qd.onion",
      "http://ncblhz7q4sfbf755bdbhebfzxcpypz7ewafgi4agatecojz7pln4i3id.onion",
      "http://librex.so2mpiyfo4cje7bof5v52y3cvjyo2haxpqfvut4sr6gj2ul4mddx2jid.onion"
    ],
    "i2p": [
      "http://rra33hiaf6nmby7jfpqe2gqmng3jnzkvbu2n7jgce7vbhoyuhzya.b32.i2p"
    ],
    "loki": []
  },
  "rimgo": {
    "normal": [
      "https://i.bcow.xyz",
      "https://rimgo.pussthecat.org",
      "https://rimgo.totaldarkness.net",
      "https://rimgo.bus-hit.me",
      "https://rimgo.esmailelbob.xyz",
      "https://rimgo.lunar.icu",
      "https://i.actionsack.com",
      "https://rimgo.privacydev.net",
      "https://imgur.artemislena.eu",
      "https://rimgo.vern.cc",
      "https://rimgo.encrypted-data.xyz",
      "https://rimgo.mha.fi"
    ],
    "tor": [
      "http://rimgo.lqs5fjmajyp7rvp4qvyubwofzi6d4imua7vs237rkc4m5qogitqwrgyd.onion",
      "http://rimgo.vernccvbvyi5qhfzyqengccj7lkove6bjot2xhh5kajhwvidqafczrad.onion",
      "http://rimgo.micohauwkjbyw5meacrb4ipicwvwg4xtzl7y7viv53kig2mdcsvwkyyd.onion"
    ],
    "i2p": [],
    "loki": []
  },
  "librarian": {
    "normal": [
      "https://lbry.bcow.xyz",
      "https://odysee.076.ne.jp",
      "https://librarian.pussthecat.org",
      "https://lbry.projectsegfau.lt",
      "https://librarian.esmailelbob.xyz",
      "https://lbry.vern.cc",
      "https://lbry.slipfox.xyz",
      "https://lbry.sytes.net",
      "https://lbry.webhop.me"
    ],
    "tor": [
      "http://librarian.lqs5fjmajyp7rvp4qvyubwofzi6d4imua7vs237rkc4m5qogitqwrgyd.onion",
      "http://lbry.vernccvbvyi5qhfzyqengccj7lkove6bjot2xhh5kajhwvidqafczrad.onion",
      "http://5znbzx2xcymhddzekfjib3isgqq4ilcyxa2bsq6vqmnvbtgu4f776lqd.onion",
      "http://zjmls4urccc5wxc64ilbv4oqarjab6pbanvmhd2qqt6p7fgqrjjnryqd.onion"
    ],
    "i2p": [],
    "loki": []
  },
  "neuters": {
    "normal": [
      "https://neuters.de"
    ],
    "tor": [],
    "i2p": [],
    "loki": []
  },
  "beatbump": {
    "normal": [
      "https://beatbump.ml",
      "https://beatbump.esmailelbob.xyz"
    ],
    "tor": [],
    "i2p": [],
    "loki": []
  },
  "hyperpipe": {
    "normal": [
      "https://hyperpipe.surge.sh",
      "https://hyperpipe.esmailelbob.xyz",
      "https://listen.whatever.social"
    ],
    "tor": [
      "http://hyperpipe.lqs5fjmajyp7rvp4qvyubwofzi6d4imua7vs237rkc4m5qogitqwrgyd.onion"
    ],
    "i2p": [],
    "loki": []
  },
  "facil": {
    "normal": [
      "https://facilmap.org"
    ],
    "tor": [],
    "i2p": [],
    "loki": []
  },
  "simpleertube": {
    "normal": [
      "https://tube.simple-web.org",
      "https://simpleertube.esmailelbob.xyz",
      "https://stube.tokhmi.xyz"
    ],
    "tor": [],
    "i2p": [],
    "loki": []
  },
  "peertube": [
    "https://iamazure.auton.id",
    "https://beetoons.tv",
    "https://rankett.net",
    "https://media.unifiedberets.com",
    "https://jzqk.org",
    "https://tube.xsoftware.it",
    "https://video.ut0pia.org",
    "https://kinotu.be",
    "https://tube.nogafa.org",
    "https://www.neptube.io",
    "https://tube.ghk-academy.info",
    "https://pcbu.nl",
    "https://soberania.tv",
    "https://pire.artisanlogiciel.net",
    "https://tube-test.apps.education.fr",
    "https://tube-sciences-technologies.apps.education.fr",
    "https://stream.conesphere.cloud",
    "https://tube-institutionnel.apps.education.fr",
    "https://trutube.online",
    "https://tube-cycle-3.apps.education.fr",
    "https://video.manicphase.me",
    "https://tube.emy.plus",
    "https://tubulus.openlatin.org",
    "https://peertube.securetown.top",
    "https://tv.datamol.org",
    "https://video.graine-pdl.org",
    "https://tube-cycle-2.apps.education.fr",
    "https://mikeclips.net",
    "https://tube.s1gm4.eu",
    "https://videos.keyedlimepie.org",
    "https://video.davduf.net",
    "https://tube.oldkid.digital",
    "https://tube.fofoca.eu",
    "https://tube-langues-vivantes.apps.education.fr",
    "https://tube-arts-lettres-sciences-humaines.apps.education.fr",
    "https://videos.scanlines.xyz",
    "https://video.kicik.fr",
    "https://media.theplattform.net",
    "https://peertube.offerman.com",
    "https://v.lastorder.xyz",
    "https://video.schnitzler.one",
    "https://tube.cybershock.life",
    "https://tube.reseau-canope.fr",
    "https://frentube.myyouniverse.observer",
    "https://tube-maternelle.apps.education.fr",
    "https://peertube.onionstorm.net",
    "https://dev.dollarvigilante.tv",
    "https://video.trankil.info",
    "https://video.uriopss-pdl.fr",
    "https://pt.bolapara.mywire.org",
    "https://video.3cmr.fr",
    "https://tube.die-rote-front.de",
    "https://peertube.miguelcr.me",
    "https://video.thinkof.name",
    "https://nekofans.tv",
    "https://video.comun.al",
    "https://video.occm.cc",
    "https://peertube.viviers-fibre.net",
    "https://tube-action-educative.apps.education.fr",
    "https://jahve.pl",
    "https://videos.yesil.club",
    "https://peertube.adjutor.xyz",
    "https://peertube.terranout.mine.nu",
    "https://tube.hunterjozwiak.com",
    "https://tube-numerique-educatif.apps.education.fr",
    "https://tube.itsg.host",
    "https://lucarne.balsamine.be",
    "https://peertube.suranyami.com",
    "https://video.ados.accoord.fr",
    "https://t.0x0.st",
    "https://tube-education-physique-et-sportive.apps.education.fr",
    "https://videos.lemouvementassociatif-pdl.org",
    "https://playroom.kitsunes.world",
    "https://tube2.nous.media",
    "https://peertube.freenet.ru",
    "https://peertube.0x5e.eu",
    "https://tube.darknight-coffee.org",
    "https://play.mittdata.se",
    "https://see.vtopia.live",
    "https://peertube.letoine.fr",
    "https://tube-enseignement-professionnel.apps.education.fr",
    "https://videos.laliguepaysdelaloire.org",
    "https://quantube.win",
    "https://twctube.twc-zone.eu",
    "https://vhs.absturztau.be",
    "https://peertube.social.my-wan.de",
    "https://phijkchu.com",
    "https://video.lycee-experimental.org",
    "https://tube.motuhake.xyz",
    "https://pt.m0r016.net",
    "https://hitchtube.fr",
    "https://video.fox-romka.ru",
    "https://peertube.ctrl-c.liu.se",
    "https://peertube.live",
    "https://video.slipfox.xyz",
    "https://vnop.org",
    "https://videos.cassidypunchmachine.com",
    "https://tv1.gomntu.space",
    "https://dalek.zone",
    "https://seka.pona.la",
    "https://syop.tv",
    "https://watch.thelema.social",
    "https://tube.miegl.cz",
    "https://mov.clov.fr",
    "https://video.vaku.org.ua",
    "https://videos.trom.lt",
    "https://vid.mkp.ca",
    "https://jupiter.tube",
    "https://tuvideo.encanarias.info",
    "https://videos.squat.net",
    "https://peertube.chaunchy.com",
    "https://tube.vrpnet.org",
    "https://video.tii.space",
    "https://nightshift.minnix.dev",
    "https://tube.friloux.me",
    "https://peertube.virtual-assembly.org",
    "https://peertube.atilla.org",
    "https://video.lapineige.fr",
    "https://tube.azkware.net",
    "https://video.lunasqu.ee",
    "https://v.mkp.ca",
    "https://peertube.eus",
    "https://infothema.net",
    "https://tube.nilsu.org",
    "https://podlibre.video",
    "https://videos.tankernn.eu",
    "https://watch.autonomous-zone.earth",
    "https://pirtube.calut.fr",
    "https://y.melonia.se",
    "https://peertube.cirkau.art",
    "https://videos.martyn.berlin",
    "https://turkum.me",
    "https://video.colibris-outilslibres.org",
    "https://invoice.peertube.biz",
    "https://peertube.chantierlibre.org",
    "https://video.9wd.eu",
    "https://video.niboe.info",
    "https://peertuibe.fedsinfo.nohost.me",
    "https://videos.alamaisondulibre.org",
    "https://videos.tormentasolar.win",
    "https://tube.nestor.coop",
    "https://live.oldskool.fi",
    "https://dytube.com",
    "https://tube.thierrytalbert.fr",
    "https://peertube.informaction.info",
    "https://tube.ac-amiens.fr",
    "https://tube.alado.space",
    "https://tube.network.europa.eu",
    "https://vnchich.com",
    "https://pt.maciej.website",
    "https://peertube.frontmediatique.fr",
    "https://peertube.bgzashtita.es",
    "https://tube.genb.de",
    "https://cliptube.org",
    "https://tube.tr4sk.me",
    "https://videos.campdarling.com",
    "https://tube.rooty.fr",
    "https://tube.dnet.one",
    "https://www.kotikoff.net",
    "https://peertube.nz",
    "https://videos.grafo.zone",
    "https://tube.chocoflan.net",
    "https://video.pthreat.co",
    "https://peertube.egroc.de",
    "https://pt.k2s.sk",
    "https://video.cats-home.net",
    "https://peertube.narrativerry.xyz",
    "https://tube.9minuti.it",
    "https://krdtube.org",
    "https://tubocatodico.bida.im",
    "https://torstenwitte.peertube-host.de",
    "https://peertube.hackerfraternity.org",
    "https://openmedia.edunova.it",
    "https://ocfedtest.hosted.spacebear.ee",
    "https://video.lono.space",
    "https://mirrored.rocks",
    "https://videopen.net",
    "https://demo.lioncast.org",
    "https://peertube.get-racing.de",
    "https://pierre.tube",
    "https://mirametube.fr",
    "https://vidz.dou.bet",
    "https://videos.redeyes.site",
    "https://video.hostpath.de",
    "https://free-streams.com",
    "https://tube.pawelko.net",
    "https://video.livecchi.cloud",
    "https://peertube.gsugambit.com",
    "https://media.zat.im",
    "https://videos.sadx.moe",
    "https://pt.nospy.net",
    "https://yhwh.tube",
    "https://tube.kicou.info",
    "https://video.aqr.af",
    "https://videos-passages.huma-num.fr",
    "https://video.linc.systems",
    "https://video.sftblw.moe",
    "https://peertube.dsmouse.net",
    "https://ptube.horsentiers.fr",
    "https://video.cnt.social",
    "https://peertube.okko.io",
    "https://video.mentality.rip",
    "https://tube.03281.fspfc.org",
    "https://tube.linc.systems",
    "https://peertube.ketchup.noho.st",
    "https://yt.x1337x.fr",
    "https://videos.rabbit-company.com",
    "https://video.paradigmthreat.net",
    "https://video.lincolncyber.com",
    "https://vid.twhtv.club",
    "https://video.retroedge.tech",
    "https://truvitv.com",
    "https://pt.ilyamikcoder.com",
    "https://peertube.sensin.eu",
    "https://sharetube.us",
    "https://video.sadmin.io",
    "https://stream.jurnalfm.md",
    "https://video.asgardius.company",
    "https://video.publicspaces.net",
    "https://video.eientei.org",
    "https://tv.suwerenni.org",
    "https://tube.revertron.com",
    "https://tube.erzbistum-hamburg.de",
    "https://views.southfox.me",
    "https://vide.oxel.me",
    "https://video.mttv.it",
    "https://peertube.cloud.nerdraum.de",
    "https://vid.pretok.tv",
    "https://videos.slownewsdayshow.com",
    "https://videos.sarcasmstardust.com",
    "https://videos.factsonthegroundshow.com",
    "https://video.pe6.eu",
    "https://tv.santic-zombie.ru",
    "https://tube.sleeping.town",
    "https://tube.globalfrens.com",
    "https://peertube.hacknews.pmdcollab.org",
    "https://video.snug.moe",
    "https://video.avant-le-strike.buzz",
    "https://videos.ritimo.org",
    "https://videos.ephphatha.church",
    "https://video.cerclearistote.com",
    "https://video.greenmycity.eu",
    "https://przej.me",
    "https://pt.mezzo.moe",
    "https://tube.dsocialize.net",
    "https://video.pourpenser.pro",
    "https://videos.npo.city",
    "https://live2.codinglab.ch",
    "https://video.linux.it",
    "https://bee-tube.fr",
    "https://vid.prometheus.systems",
    "https://tube.nx12.net",
    "https://redundant2.peertube.support",
    "https://peertube.ignifi.me",
    "https://tv.based.quest",
    "https://peertube.beardedtek.com",
    "https://creemoseducacioninclusiva.uma.es",
    "https://videos.yeswiki.net",
    "https://tube.lrk.sh",
    "https://peertube.autogestioncitoyenne.org",
    "https://video.r3s.nrw",
    "https://peertube.semweb.pro",
    "https://poast.tv",
    "https://testube.distrilab.fr",
    "https://peertube.rse43.com",
    "https://vid.lelux.fi",
    "https://v.wolfskaempf.de",
    "https://media.econoalchemist.com",
    "https://video.qoto.org",
    "https://peertube.maxweiss.io",
    "https://peertube.chatinbit.com",
    "https://peertube.ffs2play.fr",
    "https://peertube.swarm.solvingmaz.es",
    "https://film.node9.org",
    "https://peertube.mi-site.net",
    "https://tube.nowtech.io",
    "https://raptube.antipub.org",
    "https://video.cm-en-transition.fr",
    "https://tube.koweb.fr",
    "https://peertube.genma.fr",
    "https://tv.generallyrubbish.net.au",
    "https://video.travisshears.xyz",
    "https://videos.codingotaku.com",
    "https://foss.tube",
    "https://peertube.satoshishop.de",
    "https://ua.peertube.red",
    "https://peertube.zwindler.fr",
    "https://videos.fsci.in",
    "https://video.dnfi.no",
    "https://peertube.revelin.fr",
    "https://armstube.com",
    "https://peertube.ti-fr.com",
    "https://video.turbo.chat",
    "https://tube.toldi.eu",
    "https://review.peertube.biz",
    "https://peertube.am-networks.fr",
    "https://video.chbmeyer.de",
    "https://video.rs-einrich.de",
    "https://p2ptv.ru",
    "https://peertube.librenet.co.za",
    "https://h3h3.club",
    "https://tube.freepeople.fr",
    "https://watch.rt4mn.org",
    "https://video.lrose.de",
    "https://video.chalec.org",
    "https://dud175.inf.tu-dresden.de",
    "https://peertube.fenarinarsa.com",
    "https://peertube.gardion.de",
    "https://ias-peertube.iosb.fraunhofer.de",
    "https://visionon.tv",
    "https://polskijutub.mkljczk.pl",
    "https://peertube.noussommes.org",
    "https://exode.me",
    "https://megatube.lilomoino.fr",
    "https://video.anartist.org",
    "https://peertube.home.x0r.fr",
    "https://peertube.marud.fr",
    "https://freetubehub.live",
    "https://mtube.mooo.com",
    "https://skeptube.fr",
    "https://tube.villejuif.fr",
    "https://videos.hyphalfusion.network",
    "https://videos.fromouter.space",
    "https://pocketnetpeertube11.nohost.me",
    "https://tube.1o1.io",
    "https://peertube.aventer.biz",
    "https://videos.rights.ninja",
    "https://tube.pilgerweg-21.de",
    "https://pocketnetpeertube2.nohost.me",
    "https://peertube.bubbletea.dev",
    "https://peertube.art3mis.de",
    "https://open.movie",
    "https://tube.rfc1149.net",
    "https://tube.radiomercure.fr",
    "https://peertube.1984.cz",
    "https://pt.nix.uno",
    "https://videos.openmandriva.org",
    "https://video.vanderwarker.photos",
    "https://peertube.soykaf.org",
    "https://tube.interhacker.space",
    "https://video.firehawk-systems.com",
    "https://tube.otter.sh",
    "https://replay.jres.org",
    "https://peertube.lagob.fr",
    "https://peertube.gcaillaut.fr",
    "https://peertube.hellsite.net",
    "https://peertube.hosnet.fr",
    "https://video.extremelycorporate.ca",
    "https://video.zarchbox.ovh",
    "https://video.sgiath.dev",
    "https://videos.b4tech.org",
    "https://video.off-investigation.fr",
    "https://tube.source.news",
    "https://tube.childrenshealthdefense.eu",
    "https://stream.litera.tools",
    "https://peertube.kriom.net",
    "https://peertube.grosist.fr",
    "https://peertube.gemlog.ca",
    "https://nettube.uc-netcorsoft.de",
    "https://live.solari.com",
    "https://live.codinglab.ch",
    "https://dud-video.inf.tu-dresden.de",
    "https://media-test.interior.edu.uy",
    "https://media.interior.edu.uy",
    "https://phoenixproject.group",
    "https://peertube.sebu77.com",
    "https://www.orion-hub.fr",
    "https://tv.orion-serv.fr",
    "https://video.interru.io",
    "https://tube.cnr.it",
    "https://peertube.dtmf.ca",
    "https://tube.ponsonaille.fr",
    "https://tube.int5.net",
    "https://peertube.jackbot.fr",
    "https://stream.nuemedia.se",
    "https://peertube.wiredentrypoint.xyz",
    "https://videos.lemnoslife.com",
    "https://peertube.arch-linux.cz",
    "https://tube.digitalesozialearbeit.de",
    "https://tube.spdns.org",
    "https://tube.onlinekirche.net",
    "https://tube.systerserver.net",
    "https://peertube.redpill-insight.com",
    "https://pt.sfunk1x.com",
    "https://video.antopie.org",
    "https://vtr.chikichiki.tube",
    "https://fedimovie.com",
    "https://videos.thinkerview.com",
    "https://tube.doctors4covidethics.org",
    "https://yoba.tv",
    "https://tube.mediainformationcenter.de",
    "https://peertube.communecter.org",
    "https://peertube.librosphere.fr",
    "https://queermotion.org",
    "https://video.audiovisuel-participatif.org",
    "https://peertube.vip",
    "https://video.eutychia.org",
    "https://video.liveitlive.show",
    "https://vid.plantplotting.co.uk",
    "https://video.telemillevaches.net",
    "https://tv.pirati.cz",
    "https://peertube.therealblue.de",
    "https://tube.nuxnik.com",
    "https://tube.froth.zone",
    "https://peertube.ethibox.fr",
    "https://www.freetubehub.live",
    "https://tube.communia.org",
    "https://peertube.dragonborn.app",
    "https://ai-tube.ch",
    "https://video.citizen4.eu",
    "https://video.matomocamp.org",
    "https://media.fsfe.org",
    "https://flytandemeistring.space",
    "https://video.windfluechter.org",
    "https://pocketnetpeertube10.nohost.me",
    "https://tube.io18.top",
    "https://peertube.remerge.net",
    "https://video.wuatek.is",
    "https://tube.geekyboo.net",
    "https://notretube.asselma.eu",
    "https://canal.facil.services",
    "https://pt.gordons.gen.nz",
    "https://tube.misterbanal.net",
    "https://peertube.fomin.site",
    "https://peertube.kenjiyon.xyz",
    "https://tube.g1zm0.de",
    "https://video.ellijaymakerspace.org",
    "https://videos.benpro.fr",
    "https://tube.fait.ch",
    "https://peertube.expi.studio",
    "https://crank.recoil.org",
    "https://tube.flokinet.is",
    "https://peertube.education-forum.com",
    "https://apathy.tv",
    "https://pocketnetpeertube9.nohost.me",
    "https://lfbu.nl",
    "https://tube.benzo.online",
    "https://peertube.paladyn.org",
    "https://fightforinfo.com",
    "https://tube.ulne.be",
    "https://video.rubdos.be",
    "https://tube.tuxfriend.fr",
    "https://anarchy.tube",
    "https://tube.elemac.fr",
    "https://tube.nocturlab.fr",
    "https://videos.optoutpod.com",
    "https://videos.bik.opencloud.lu",
    "https://videos.aadtp.be",
    "https://videos.gunfreezone.net",
    "https://videos.globenet.org",
    "https://tube.klardenken.tv",
    "https://serv2.wiki-tube.de",
    "https://tube2.apolut.net",
    "https://pt01.lehrerfortbildung-bw.de",
    "https://videos.buceoluegoexisto.com",
    "https://tube.exozy.me",
    "https://video.benetou.fr",
    "https://bideoak.argia.eus",
    "https://video.hainry.fr",
    "https://video.gresille.org",
    "https://peertube.tangentfox.com",
    "https://puffy.tube",
    "https://tube.kher.nl",
    "https://watch.ocaml.org",
    "https://peertube.kleph.eu",
    "https://tube.missbanal.net",
    "https://pityu.flaki.hu",
    "https://tv.catalpafestival.fr",
    "https://pony.tube",
    "https://peertube.umeahackerspace.se",
    "https://tube.okcinfo.news",
    "https://www.rocaguinarda.tv",
    "https://videos.wirtube.de",
    "https://livegram.net",
    "https://video.ustim.ru",
    "https://merci-la-police.fr",
    "https://pocketnetpeertube7.nohost.me",
    "https://video.rhizome.org",
    "https://dnk.video",
    "https://video.medienzentrum-harburg.de",
    "https://video.metaccount.de",
    "https://video.libreti.net",
    "https://leopard.tube",
    "https://peertube.skorpil.cz",
    "https://peertube.scyldings.com",
    "https://gade.o-k-i.net",
    "https://peertube.mobilsicher.de",
    "https://video.jigmedatse.com",
    "https://video.amiga-ng.org",
    "https://peertube.espace.si",
    "https://videos.supertuxkart.net",
    "https://pt.borgcube.eu",
    "https://mp-tube.de",
    "https://socialwebtube.com",
    "https://kraut.zone",
    "https://www.birkeundnymphe.de",
    "https://birkeundnymphe.de",
    "https://v.kisombrella.top",
    "https://peertube.w.utnw.de",
    "https://tube.sp-codes.de",
    "https://tube.apolut.net",
    "https://tube.mfraters.net",
    "https://tube.pyngu.com",
    "https://peertube.troback.com",
    "https://peertube.ucy.de",
    "https://peertube.aukfood.net",
    "https://peertube.bridaahost.ynh.fr",
    "https://peertube.myrasp.eu",
    "https://watch.softinio.com",
    "https://peertube.plataformess.org",
    "https://tube.arthack.nz",
    "https://tv.atmx.ca",
    "https://kino.kompot.si",
    "https://tube.kockatoo.org",
    "https://peertube.cabaal.net",
    "https://stream.k-prod.fr",
    "https://tube.tylerdavis.xyz",
    "https://video.marcorennmaus.de",
    "https://peertube.ecologie.bzh",
    "https://peertube.atsuchan.page",
    "https://peertube.vlaki.cz",
    "https://video-cave-v2.de",
    "https://peertube.keazilla.net",
    "https://vids.tekdmn.me",
    "https://piraten.space",
    "https://tube.bstly.de",
    "https://web-fellow.de",
    "https://peertube.alpharius.io",
    "https://ptb.lunarviews.net",
    "https://ovaltube.codinglab.ch",
    "https://video.wilkie.how",
    "https://videos.ahp-numerique.fr",
    "https://auf1.eu",
    "https://tube.toontoet.nl",
    "https://video.gyt.is",
    "https://peertube.jensdiemer.de",
    "https://tube.futuretic.fr",
    "https://peertube.beeldengeluid.nl",
    "https://tv.lumbung.space",
    "https://peertube.cuatrolibertades.org",
    "https://videos.hush.is",
    "https://tube.ebin.club",
    "https://tube.tpshd.de",
    "https://video.ozgurkon.org",
    "https://video.progressiv.dev",
    "https://video.migennes.net",
    "https://irrsinn.video",
    "https://pocketnetpeertube4.nohost.me",
    "https://comf.tube",
    "https://pocketnetpeertube6.nohost.me",
    "https://pocketnetpeertube5.nohost.me",
    "https://peertube.radres.xyz",
    "https://darkvapor.nohost.me",
    "https://tube.chaoszone.tv",
    "https://tube.avensio.de",
    "https://peertube.klaewyss.fr",
    "https://sender-fm.veezee.tube",
    "https://peertube.takeko.cyou",
    "https://hyperreal.tube",
    "https://peertube.kalua.im",
    "https://tv.undersco.re",
    "https://video.selea.se",
    "https://tv.neue.city",
    "https://videos.shmalls.pw",
    "https://peertube.iriseden.eu",
    "https://video.shitposter.club",
    "https://tv.mattchristiansenmedia.com",
    "https://tube.hackerscop.org",
    "https://peertube.kx.studio",
    "https://videos.3d-wolf.com",
    "https://tube.octaplex.net",
    "https://video.076.ne.jp",
    "https://stream.elven.pw",
    "https://juggling.digital",
    "https://videos.rampin.org",
    "https://bitcointv.com",
    "https://media.gzevd.de",
    "https://video.resolutions.it",
    "https://tube.cms.garden",
    "https://peertube.luckow.org",
    "https://video.linuxtrent.it",
    "https://tube.bachaner.fr",
    "https://video.comune.trento.it",
    "https://tube.org.il",
    "https://tv.pirateradio.social",
    "https://peertube.eu.org",
    "https://peertube.mxinfo.fr",
    "https://tube.frischesicht.de",
    "https://peertube1.zeteo.me",
    "https://conspiracydistillery.com",
    "https://hpstube.fr",
    "https://video.blast-info.fr",
    "https://peertube.bubuit.net",
    "https://tube.aerztefueraufklaerung.de",
    "https://video.cybre.town",
    "https://the.jokertv.eu",
    "https://climatejustice.video",
    "https://wikileaks.video",
    "https://fair.tube",
    "https://tube.lokad.com",
    "https://videos.benjaminbrady.ie",
    "https://video.binarydad.com",
    "https://tube.pmj.rocks",
    "https://video.guerredeclasse.fr",
    "https://ptmir4.inter21.net",
    "https://ptmir3.inter21.net",
    "https://peertube.habets.house",
    "https://tube.yapbreak.fr",
    "https://peertube.ctseuro.com",
    "https://spectra.video",
    "https://live.nanao.moe",
    "https://peertube.inapurna.org",
    "https://watch.libertaria.space",
    "https://video.triplea.fr",
    "https://vulgarisation-informatique.fr",
    "https://tube.kotur.org",
    "https://peertube.euskarabildua.eus",
    "https://video.veloma.org",
    "https://regarder.sans.pub",
    "https://tube.rhythms-of-resistance.org",
    "https://tube-bordeaux.beta.education.fr",
    "https://video.lespoesiesdheloise.fr",
    "https://peertube.luga.at",
    "https://peertube.roflcopter.fr",
    "https://ptube.rousset.nom.fr",
    "https://peertube.swrs.net",
    "https://tube.shanti.cafe",
    "https://videos.cloudron.io",
    "https://tube.seditio.fr",
    "https://video.p3x.de",
    "https://video.codingfield.com",
    "https://tv.adn.life",
    "https://peertube.functional.cafe",
    "https://peertube.br0.fr",
    "https://video.bards.online",
    "https://video.toot.pt",
    "https://videos.archigny.net",
    "https://videos.pzelawski.xyz",
    "https://peertube.zoz-serv.org",
    "https://videos.stadtfabrikanten.org",
    "https://peertube.gargantia.fr",
    "https://tube.melonbread.xyz",
    "https://tube.grap.coop",
    "https://webtv.vandoeuvre.net",
    "https://peertube.european-pirates.eu",
    "https://video.fhtagn.org",
    "https://kirche.peertube-host.de",
    "https://v.lor.sh",
    "https://peertube.be",
    "https://peertube.linuxrocks.online",
    "https://grypstube.uni-greifswald.de",
    "https://wiwi.video",
    "https://video.soi.ch",
    "https://peertube.newsocial.tech",
    "https://peertube.cpge-brizeux.fr",
    "https://tube.distrilab.fr",
    "https://kinowolnosc.pl",
    "https://videos.trom.tf",
    "https://videos.john-livingston.fr",
    "https://melsungen.peertube-host.de",
    "https://evangelisch.video",
    "https://tube.anufrij.de",
    "https://videos.mastodont.cat",
    "https://media.undeadnetwork.de",
    "https://tube.dragonpsi.xyz",
    "https://peertube.nicolastissot.fr",
    "https://tubes.jodh.us",
    "https://tube.lucie-philou.com",
    "https://video.odayacres.farm",
    "https://tube.schule.social",
    "https://unfilter.tube",
    "https://tube.systest.eu",
    "https://tube.xd0.de",
    "https://tube.xy-space.de",
    "https://studios.racer159.com",
    "https://exo.tube",
    "https://fediverse.tv",
    "https://xxivproduction.video",
    "https://digitalcourage.video",
    "https://tvox.ru",
    "https://video.kuba-orlik.name",
    "https://peer.azurs.fr",
    "https://video.ecole-89.com",
    "https://tube.kai-stuht.com",
    "https://video.fbxl.net",
    "https://live.libratoi.org",
    "https://video.p1ng0ut.social",
    "https://watch.deranalyst.ch",
    "https://video.discord-insoumis.fr",
    "https://video.pcf.fr",
    "https://kumi.tube",
    "https://tube.rsi.cnr.it",
    "https://peertube.dc.pini.fr",
    "https://peertube.simounet.net",
    "https://peertube.bilange.ca",
    "https://watch.ignorance.eu",
    "https://tube.schleuss.online",
    "https://tube-corse.beta.education.fr",
    "https://tube-creteil.beta.education.fr",
    "https://tube.saumon.io",
    "https://tube-paris.beta.education.fr",
    "https://theater.ethernia.net",
    "https://watch.tubelab.video",
    "https://lastbreach.tv",
    "https://tube.abolivier.bzh",
    "https://video.coales.co",
    "https://film.k-prod.fr",
    "https://videos.danksquad.org",
    "https://peertube.tweb.tv",
    "https://peertube.lestutosdeprocessus.fr",
    "https://video.mycrowd.ca",
    "https://kodcast.com",
    "https://video.altertek.org",
    "https://ruraletv.ovh",
    "https://videos.weblib.re",
    "https://tube.oisux.org",
    "https://peertube.louisematic.site",
    "https://clap.nerv-project.eu",
    "https://tube.lacaveatonton.ovh",
    "https://peertube.tspu.edu.ru",
    "https://p.lu",
    "https://serv3.wiki-tube.de",
    "https://video.lavolte.net",
    "https://peertube.public.cat",
    "https://peertube.anduin.net",
    "https://peertube.r5c3.fr",
    "https://mountaintown.video",
    "https://ptmir1.inter21.net",
    "https://tube.foxden.party",
    "https://fotogramas.politicaconciencia.org",
    "https://peertube.pl",
    "https://peertube.manalejandro.com",
    "https://www4.mir.inter21.net",
    "https://video.csc49.fr",
    "https://tube.wolfe.casa",
    "https://video.dresden.network",
    "https://peertube.zapashcanon.fr",
    "https://40two.tube",
    "https://tube.amic37.fr",
    "https://video.comptoir.net",
    "https://kino.schuerz.at",
    "https://peertube.tiennot.net",
    "https://tututu.tube",
    "https://tube.picasoft.net",
    "https://www.wiki-tube.de",
    "https://videos.pair2jeux.tube",
    "https://video.internet-czas-dzialac.pl",
    "https://thecool.tube",
    "https://tube.troopers.agency",
    "https://peertube.chtisurel.net",
    "https://videos.testimonia.org",
    "https://video.mass-trespass.uk",
    "https://peertube.cipherbliss.com",
    "https://peertube.stemy.me",
    "https://daschauher.aksel.rocks",
    "https://tube.cyano.at",
    "https://tube.nox-rhea.org",
    "https://peertube.securitymadein.lu",
    "https://tube.rita.moe",
    "https://tuktube.com",
    "https://v.basspistol.org",
    "https://mytube.kn-cloud.de",
    "https://tube.nuagelibre.fr",
    "https://video.nogafam.es",
    "https://peertube.stream",
    "https://videos.leslionsfloorball.fr",
    "https://player.ojamajo.moe",
    "https://ftsi.ru",
    "https://video.cigliola.com",
    "https://xxx.noho.st",
    "https://peertube.stefofficiel.me",
    "https://canard.tube",
    "https://tube.jeena.net",
    "https://tube.cloud-libre.eu",
    "https://videos.coletivos.org",
    "https://peertube.xwiki.com",
    "https://cinema.yunohost.support",
    "https://peertube.s2s.video",
    "https://peertube.travelpandas.eu",
    "https://video.sdm-tools.net",
    "https://peertube.anzui.dev",
    "https://video.up.edu.ph",
    "https://video.igem.org",
    "https://worldofvids.com",
    "https://peertube.underworld.fr",
    "https://peertube.pi2.dev",
    "https://video.pony.gallery",
    "https://tube.skrep.in",
    "https://tube.others.social",
    "https://tube-poitiers.beta.education.fr",
    "https://vid.wildeboer.net",
    "https://battlepenguin.video",
    "https://peertube.cloud.sans.pub",
    "https://refuznik.video",
    "https://tube.shela.nu",
    "https://video.1146.nohost.me",
    "https://peertube.davigge.com",
    "https://vod.ksite.de",
    "https://tube.grin.hu",
    "https://tube.cryptography.dog",
    "https://peertube.zergy.net",
    "https://vid.ncrypt.at",
    "https://videos.tcit.fr",
    "https://video.valme.io",
    "https://peertube.patapouf.xyz",
    "https://video.violoncello.ch",
    "https://peertube.gidikroon.eu",
    "https://tubedu.org",
    "https://watch.breadtube.tv",
    "https://video.exodus-privacy.eu.org",
    "https://tilvids.com",
    "https://peertube.devloprog.org",
    "https://peertube.designersethiques.org",
    "https://testtube.florimond.eu",
    "https://tube-lille.beta.education.fr",
    "https://peertube.monlycee.net",
    "https://tube.plomlompom.com",
    "https://tube-outremer.beta.education.fr",
    "https://tube-dijon.beta.education.fr",
    "https://tube-reims.beta.education.fr",
    "https://tube-limoges.beta.education.fr",
    "https://tube-versailles.beta.education.fr",
    "https://peertube.r2.enst.fr",
    "https://tube-orleans-tours.beta.education.fr",
    "https://spacepub.space",
    "https://peertube.devol.it",
    "https://tube-clermont-ferrand.beta.education.fr",
    "https://tube-nice.beta.education.fr",
    "https://tube-montpellier.beta.education.fr",
    "https://tube-nancy.beta.education.fr",
    "https://tube-aix-marseille.beta.education.fr",
    "https://tube-nantes.beta.education.fr",
    "https://tube-grenoble.beta.education.fr",
    "https://tube-amiens.beta.education.fr",
    "https://media.privacyinternational.org",
    "https://tube-normandie.beta.education.fr",
    "https://tube.port0.xyz",
    "https://tube1.it.tuwien.ac.at",
    "https://tube.aquilenet.fr",
    "https://peertube.lyceeconnecte.fr",
    "https://tube-education.beta.education.fr",
    "https://vids.roshless.me",
    "https://tube-toulouse.beta.education.fr",
    "https://peertube.netzbegruenung.de",
    "https://plextube.nl",
    "https://tube.opportunis.me",
    "https://tube-strasbourg.beta.education.fr",
    "https://tube.graz.social",
    "https://tube-besancon.beta.education.fr",
    "https://kolektiva.media",
    "https://peertube.ichigo.everydayimshuflin.com",
    "https://video.lundi.am",
    "https://tube.florimond.eu",
    "https://peertube.taxinachtegel.de",
    "https://peertube.scic-tetris.org",
    "https://peertube.lagvoid.com",
    "https://pt.diaspodon.fr",
    "https://video.mugoreve.fr",
    "https://tube.portes-imaginaire.org",
    "https://peervideo.ru",
    "https://p.eertu.be",
    "https://video.hardlimit.com",
    "https://peertube.debian.social",
    "https://tube.piweb.be",
    "https://peertube.su",
    "https://video.hackers.town",
    "https://tube.fdn.fr",
    "https://peertube.demonix.fr",
    "https://videos.hauspie.fr",
    "https://lexx.impa.me",
    "https://mplayer.demouliere.eu",
    "https://video.liberta.vip",
    "https://peertube.gcfamily.fr",
    "https://tube.plaf.fr",
    "https://tube.nah.re",
    "https://dreiecksnebel.alex-detsch.de",
    "https://tube.hoga.fr",
    "https://videos.festivalparminous.org",
    "https://tube.thechangebook.org",
    "https://lepetitmayennais.fr.nf",
    "https://medias.pingbase.net",
    "https://video.oh14.de",
    "https://mytube.madzel.de",
    "https://monplaisirtube.ddns.net",
    "https://video.blender.org",
    "https://peertube.020.pl",
    "https://tube.azbyka.ru",
    "https://greatview.video",
    "https://media.krashboyz.org",
    "https://toobnix.org",
    "https://video.emergeheart.info",
    "https://tube.kdy.ch",
    "https://widemus.de",
    "https://video.nesven.eu",
    "https://tube.rebellion.global",
    "https://videos.koumoul.com",
    "https://tube.undernet.uy",
    "https://peertube.opencloud.lu",
    "https://peertube.ch",
    "https://tube.tappret.fr",
    "https://peertube.snargol.com",
    "https://peertube.desmu.fr",
    "https://peertube.rainbowswingers.net",
    "https://tube.nx-pod.de",
    "https://video.monsieurbidouille.fr",
    "https://tube.crapaud-fou.org",
    "https://lostpod.space",
    "https://www.videos-libr.es",
    "https://video.vny.fr",
    "https://peervideo.club",
    "https://tube.taker.fr",
    "https://peertube.co.uk",
    "https://video.fitchfamily.org",
    "https://video.fdlibre.eu",
    "https://peer.philoxweb.be",
    "https://peertube.sl-network.fr",
    "https://peertube.dynlinux.io",
    "https://v.kretschmann.social",
    "https://videos.funkwhale.audio",
    "https://watch.44con.com",
    "https://tube.danq.me",
    "https://tube.calculate.social",
    "https://peertube.laas.fr",
    "https://video.ploud.jp",
    "https://conf.tube",
    "https://tube.extinctionrebellion.fr",
    "https://peertube.f-si.org",
    "https://video.subak.ovh",
    "https://peertube.floss-marketing-school.com",
    "https://peertube.slat.org",
    "https://peertube.uno",
    "https://tube.ksl-bmx.de",
    "https://tube.tchncs.de",
    "https://yunopeertube.myddns.me",
    "https://peertube.anon-kenkai.com",
    "https://tube.maiti.info",
    "https://video.lemediatv.fr",
    "https://peertube.artica.center",
    "https://indymotion.fr",
    "https://tube.fede.re",
    "https://peertube.mygaia.org",
    "https://peertube.livingutopia.org",
    "https://tube.anjara.eu",
    "https://video.latavernedejohnjohn.fr",
    "https://peertube.pcservice46.fr",
    "https://video.coop.tools",
    "https://video.cabane-libre.org",
    "https://peertube.openstreetmap.fr",
    "https://videos.alolise.org",
    "https://scitech.video",
    "https://peertube.togart.de",
    "https://tube.postblue.info",
    "https://videos.domainepublic.net",
    "https://repro.video",
    "https://videos.side-ways.net",
    "https://videos.pueseso.club",
    "https://media.assassinate-you.net",
    "https://peertube.makotoworkshop.org",
    "https://peertube.serveur.slv-valbonne.fr",
    "https://video.netsyms.com",
    "https://videos.adhocmusic.com",
    "https://vid.y-y.li",
    "https://diode.zone",
    "https://peertube.nomagic.uk",
    "https://video.rastapuls.com",
    "https://peertube.musicstudio.pro",
    "https://peertube.we-keys.fr",
    "https://artitube.artifaille.fr",
    "https://peertube.fr",
    "https://peertube.amicale.net",
    "https://aperi.tube",
    "https://tube.ac-lyon.fr",
    "https://video.lw1.at",
    "https://www.yiny.org",
    "https://video.typica.us",
    "https://videos.lescommuns.org",
    "https://peertube.1312.media",
    "https://skeptikon.fr",
    "https://video.blueline.mg",
    "https://tube.homecomputing.fr",
    "https://video.tedomum.net",
    "https://video.g3l.org",
    "https://fontube.fr",
    "https://peertube.gaialabs.ch",
    "https://peertube.qtg.fr",
    "https://tube.p2p.legal",
    "https://troll.tv",
    "https://videos.iut-orsay.fr",
    "https://peertube.solidev.net",
    "https://videos.cemea.org",
    "https://video.passageenseine.fr",
    "https://peertube.touhoppai.moe",
    "https://share.tube",
    "https://peertube.heraut.eu",
    "https://peertube.gegeweb.eu",
    "https://framatube.org",
    "https://tube.conferences-gesticulees.net",
    "https://peertube.datagueule.tv",
    "https://video.lqdn.fr",
    "https://peertube3.cpy.re",
    "https://peertube2.cpy.re",
    "https://peertube.cpy.re"
  ]
}